[18:33:05.215] [C] ######################################################################################
[18:33:05.215] [C] --> START

[18:33:05.216] [I] # rpcEvalClient::proceed() >> CREATE
[18:38:33.844] [I] # rpcEvalClient::proceed() >> PROCESS
[18:38:33.844] [I] # rpcEvalClient::proceed() >> CREATE
[18:38:33.845] [I] --> RECEIVED MESSAGE
[18:38:33.845] [I]     * trans_id = test.100
[18:38:33.845] [I]     * filename = /home/eduai/project/mslPronEval/src/mslPronEval.test/sample/sample.pcm
[18:38:33.845] [I]     * utterance= I went hiking with my father.
[18:38:33.845] [I]     --------------------------------------------------------------------
[18:38:33.845] [D] step........ 1
[18:38:33.845] [D] step........ 2
[18:38:33.845] [D] step........ 4, text = I went hiking with my father.
[18:38:34.106] [D] step........ 5, /home/eduai/project/mslPronEval/src/mslPronEval.test/sample/sample.pcm
[18:38:34.111] [D] step........ 6,        <PronClinic>
           <Lesson>
               <Item>
                    <eval_score>0.0</eval_score>
                    <eval_pass>NO</eval_pass>
               </Item>
               <RegressionTest>
                    <RegressionEval><evalScore>0.0<evalScore></RegressionEval>
               </RegressionTest>
           </Lesson>
       </PronClinic>

[18:38:34.111] [I] ------------------------> pronscore = 0
[18:38:34.111] [D] step........ 7
[18:38:34.128] [D] step........ 8
[18:38:34.128] [D] step........ 9
[18:38:34.128] [D] step........ 10
[18:38:34.128] [I]     * pron_score = 0
[18:38:34.128] [I]     * holistic = 0
[18:38:34.128] [I]     * speed = 0
[18:38:34.128] [I]     * rhythm = 0
[18:38:34.128] [I]     * intonation = 0
[18:38:34.128] [I]     * segmental = 0
[18:38:34.128] [I]     * result_code = 0
[18:38:34.128] [I]     * duration = 0.283s

[18:38:34.128] [I] # rpcEvalClient::proceed() >> status = 2
[18:39:19.764] [I] # rpcEvalClient::proceed() >> PROCESS
[18:39:19.764] [I] # rpcEvalClient::proceed() >> CREATE
[18:39:19.764] [I] --> RECEIVED MESSAGE
[18:39:19.764] [I]     * trans_id = test.100
[18:39:19.764] [I]     * filename = /home/minds/project/maumEngPronEval/src/mslPronEval.test/sample/sample.pcm
[18:39:19.764] [I]     * utterance= I went hiking with my father.
[18:39:19.764] [I]     --------------------------------------------------------------------
[18:39:19.764] [D] step........ 1
[18:39:19.764] [D] step........ 2
[18:39:19.764] [D] step........ 4, text = I went hiking with my father.
[18:39:20.022] [D] step........ 5, /home/minds/project/maumEngPronEval/src/mslPronEval.test/sample/sample.pcm
[18:39:20.168] [D] step........ 6,        <PronClinic>
           <Lesson>
               <Item>
                    <eval_score>69</eval_score>
                    <eval_pass>YES</eval_pass>
               </Item>
               <RegressionTest>
                    <RegressionEval>
                         <name>GENIE_HOLISTIC_ALL10k_KSEC</name>
                         <evalScore>2.774952</evalScore>
                         <scoreMin>1</scoreMin>
                         <scoreMax>5</scoreMax>
                    </RegressionEval>
                    <RegressionEval>
                         <name>GENIE_SPEED_ALL10k_KSEC</name>
                         <evalScore>2.967933</evalScore>
                         <scoreMin>1</scoreMin>
                         <scoreMax>5</scoreMax>
                    </RegressionEval>
                    <RegressionEval>
                         <name>GENIE_RHYTHM_ALL10k_KSEC</name>
                         <evalScore>2.804200</evalScore>
                         <scoreMin>1</scoreMin>
                         <scoreMax>5</scoreMax>
                    </RegressionEval>
                    <RegressionEval>
                         <name>GENIE_INTONATION_ALL10k_KSEC</name>
                         <evalScore>2.757144</evalScore>
                         <scoreMin>1</scoreMin>
                         <scoreMax>5</scoreMax>
                    </RegressionEval>
                    <RegressionEval>
                         <name>GENIE_SEGMENTAL_ALL10k_KSEC</name>
                         <evalScore>2.645816</evalScore>
                         <scoreMin>1</scoreMin>
                         <scoreMax>5</scoreMax>
                    </RegressionEval>
                    <RegressionEval>
                         <name>GENIE_SEGMENTAL_ALL10k_KSEC_FEAT19</name>
                         <evalScore>2.674231</evalScore>
                         <scoreMin>1</scoreMin>
                         <scoreMax>5</scoreMax>
                    </RegressionEval>
               </RegressionTest>
           </Lesson>
       </PronClinic>

[18:39:20.168] [I] ------------------------> pronscore = 69
[18:39:20.168] [D] step... 1 >>        <PronClinic>
           <Lesson>
               <Item>
                    <eval_score>69</eval_score>
                    <eval_pass>YES</eval_pass>
               </Item>
               <RegressionTest>
                    <RegressionEval>
                         <name>GENIE_HOLISTIC_ALL10k_KSEC</name>
                         <evalScore>2.774952</evalScore>
                         <scoreMin>1</scoreMin>
                         <scoreMax>5</scoreMax>
                    </RegressionEval>
                    <RegressionEval>
                         <name>GENIE_SPEED_ALL10k_KSEC</name>
                         <evalScore>2.967933</evalScore>
                         <scoreMin>1</scoreMin>
                         <scoreMax>5</scoreMax>
                    </RegressionEval>
                    <RegressionEval>
                         <name>GENIE_RHYTHM_ALL10k_KSEC</name>
                         <evalScore>2.804200</evalScore>
                         <scoreMin>1</scoreMin>
                         <scoreMax>5</scoreMax>
                    </RegressionEval>
                    <RegressionEval>
                         <name>GENIE_INTONATION_ALL10k_KSEC</name>
                         <evalScore>2.757144</evalScore>
                         <scoreMin>1</scoreMin>
                         <scoreMax>5</scoreMax>
                    </RegressionEval>
                    <RegressionEval>
                         <name>GENIE_SEGMENTAL_ALL10k_KSEC</name>
                         <evalScore>2.645816</evalScore>
                         <scoreMin>1</scoreMin>
                         <scoreMax>5</scoreMax>
                    </RegressionEval>
                    <RegressionEval>
                         <name>GENIE_SEGMENTAL_ALL10k_KSEC_FEAT19</name>
                         <evalScore>2.674231</evalScore>
                         <scoreMin>1</scoreMin>
                         <scoreMax>5</scoreMax>
                    </RegressionEval>
               </RegressionTest>
           </Lesson>
       </PronClinic>

[18:39:20.168] [D] step... 1.. 1 / ptr=GENIE_HOLISTIC_ALL10k_KSEC</name>
                         <evalScore>2.774952</evalScore>
                         <scoreMin>1</scoreMin>
                         <scoreMax>5</scoreMax>
                    </RegressionEval>
                    <RegressionEval>
                         <name>GENIE_SPEED_ALL10k_KSEC</name>
                         <evalScore>2.967933</evalScore>
                         <scoreMin>1</scoreMin>
                         <scoreMax>5</scoreMax>
                    </RegressionEval>
                    <RegressionEval>
                         <name>GENIE_RHYTHM_ALL10k_KSEC</name>
                         <evalScore>2.804200</evalScore>
                         <scoreMin>1</scoreMin>
                         <scoreMax>5</scoreMax>
                    </RegressionEval>
                    <RegressionEval>
                         <name>GENIE_INTONATION_ALL10k_KSEC</name>
                         <evalScore>2.757144</evalScore>
                         <scoreMin>1</scoreMin>
                         <scoreMax>5</scoreMax>
                    </RegressionEval>
                    <RegressionEval>
                         <name>GENIE_SEGMENTAL_ALL10k_KSEC</name>
                         <evalScore>2.645816</evalScore>
                         <scoreMin>1</scoreMin>
                         <scoreMax>5</scoreMax>
                    </RegressionEval>
                    <RegressionEval>
                         <name>GENIE_SEGMENTAL_ALL10k_KSEC_FEAT19</name>
                         <evalScore>2.674231</evalScore>
                         <scoreMin>1</scoreMin>
                         <scoreMax>5</scoreMax>
                    </RegressionEval>
               </RegressionTest>
           </Lesson>
       </PronClinic>

[18:39:20.168] [D] step... 1.. 2
[18:39:20.168] [D] step... 1.. 3
[18:39:20.168] [D] step... 2
[18:39:20.168] [D] step... 3
[18:39:20.168] [D] step... 4
[18:39:20.168] [D] step... 5
[18:39:20.168] [D] step... 6
[18:39:20.168] [D] step... 7
[18:39:20.168] [D] step........ 7
[18:39:20.185] [D] step........ 8
[18:39:20.185] [D] step........ 9
[18:39:20.185] [D] step........ 10
[18:39:20.185] [I]     * pron_score = 69
[18:39:20.185] [I]     * holistic = 2.77495
[18:39:20.185] [I]     * speed = 2.96793
[18:39:20.185] [I]     * rhythm = 2.8042
[18:39:20.185] [I]     * intonation = 2.75714
[18:39:20.185] [I]     * segmental = 2.64582
[18:39:20.185] [I]     * result_code = 0
[18:39:20.185] [I]     * duration = 0.421s

[18:39:20.185] [I] # rpcEvalClient::proceed() >> status = 2
[18:48:23.292] [I] # rpcEvalClient::proceed() >> PROCESS
[18:48:23.292] [I] # rpcEvalClient::proceed() >> CREATE
[18:48:23.292] [I] --> RECEIVED MESSAGE
[18:48:23.292] [I]     * trans_id = 
[18:48:23.292] [I]     * filename = /record/engedu/111111/333333/202004/20200424_184819_249-111111-333333.wav
[18:48:23.292] [I]     * utterance= Yes I had not.
[18:48:23.292] [I]     --------------------------------------------------------------------
[18:48:23.292] [D] step........ 1
[18:48:23.292] [D] step........ 2
[18:48:23.292] [D] step........ 4, text = Yes I had not.
[18:48:23.549] [D] step........ 5, /record/engedu/111111/333333/202004/20200424_184819_249-111111-333333.wav
[18:48:23.651] [D] step........ 6,        <PronClinic>
           <Lesson>
               <Item>
                    <eval_score>51</eval_score>
                    <eval_pass>YES</eval_pass>
               </Item>
               <RegressionTest>
                    <RegressionEval>
                         <name>GENIE_HOLISTIC_ALL10k_KSEC</name>
                         <evalScore>2.203715</evalScore>
                         <scoreMin>1</scoreMin>
                         <scoreMax>5</scoreMax>
                    </RegressionEval>
                    <RegressionEval>
                         <name>GENIE_SPEED_ALL10k_KSEC</name>
                         <evalScore>2.486810</evalScore>
                         <scoreMin>1</scoreMin>
                         <scoreMax>5</scoreMax>
                    </RegressionEval>
                    <RegressionEval>
                         <name>GENIE_RHYTHM_ALL10k_KSEC</name>
                         <evalScore>2.122283</evalScore>
                         <scoreMin>1</scoreMin>
                         <scoreMax>5</scoreMax>
                    </RegressionEval>
                    <RegressionEval>
                         <name>GENIE_INTONATION_ALL10k_KSEC</name>
                         <evalScore>2.135846</evalScore>
                         <scoreMin>1</scoreMin>
                         <scoreMax>5</scoreMax>
                    </RegressionEval>
                    <RegressionEval>
                         <name>GENIE_SEGMENTAL_ALL10k_KSEC</name>
                         <evalScore>1.958450</evalScore>
                         <scoreMin>1</scoreMin>
                         <scoreMax>5</scoreMax>
                    </RegressionEval>
                    <RegressionEval>
                         <name>GENIE_SEGMENTAL_ALL10k_KSEC_FEAT19</name>
                         <evalScore>1.974935</evalScore>
                         <scoreMin>1</scoreMin>
                         <scoreMax>5</scoreMax>
                    </RegressionEval>
               </RegressionTest>
           </Lesson>
       </PronClinic>

[18:48:23.651] [I] ------------------------> pronscore = 51
[18:48:23.651] [D] step... 1 >>        <PronClinic>
           <Lesson>
               <Item>
                    <eval_score>51</eval_score>
                    <eval_pass>YES</eval_pass>
               </Item>
               <RegressionTest>
                    <RegressionEval>
                         <name>GENIE_HOLISTIC_ALL10k_KSEC</name>
                         <evalScore>2.203715</evalScore>
                         <scoreMin>1</scoreMin>
                         <scoreMax>5</scoreMax>
                    </RegressionEval>
                    <RegressionEval>
                         <name>GENIE_SPEED_ALL10k_KSEC</name>
                         <evalScore>2.486810</evalScore>
                         <scoreMin>1</scoreMin>
                         <scoreMax>5</scoreMax>
                    </RegressionEval>
                    <RegressionEval>
                         <name>GENIE_RHYTHM_ALL10k_KSEC</name>
                         <evalScore>2.122283</evalScore>
                         <scoreMin>1</scoreMin>
                         <scoreMax>5</scoreMax>
                    </RegressionEval>
                    <RegressionEval>
                         <name>GENIE_INTONATION_ALL10k_KSEC</name>
                         <evalScore>2.135846</evalScore>
                         <scoreMin>1</scoreMin>
                         <scoreMax>5</scoreMax>
                    </RegressionEval>
                    <RegressionEval>
                         <name>GENIE_SEGMENTAL_ALL10k_KSEC</name>
                         <evalScore>1.958450</evalScore>
                         <scoreMin>1</scoreMin>
                         <scoreMax>5</scoreMax>
                    </RegressionEval>
                    <RegressionEval>
                         <name>GENIE_SEGMENTAL_ALL10k_KSEC_FEAT19</name>
                         <evalScore>1.974935</evalScore>
                         <scoreMin>1</scoreMin>
                         <scoreMax>5</scoreMax>
                    </RegressionEval>
               </RegressionTest>
           </Lesson>
       </PronClinic>

[18:48:23.651] [D] step... 1.. 1 / ptr=GENIE_HOLISTIC_ALL10k_KSEC</name>
                         <evalScore>2.203715</evalScore>
                         <scoreMin>1</scoreMin>
                         <scoreMax>5</scoreMax>
                    </RegressionEval>
                    <RegressionEval>
                         <name>GENIE_SPEED_ALL10k_KSEC</name>
                         <evalScore>2.486810</evalScore>
                         <scoreMin>1</scoreMin>
                         <scoreMax>5</scoreMax>
                    </RegressionEval>
                    <RegressionEval>
                         <name>GENIE_RHYTHM_ALL10k_KSEC</name>
                         <evalScore>2.122283</evalScore>
                         <scoreMin>1</scoreMin>
                         <scoreMax>5</scoreMax>
                    </RegressionEval>
                    <RegressionEval>
                         <name>GENIE_INTONATION_ALL10k_KSEC</name>
                         <evalScore>2.135846</evalScore>
                         <scoreMin>1</scoreMin>
                         <scoreMax>5</scoreMax>
                    </RegressionEval>
                    <RegressionEval>
                         <name>GENIE_SEGMENTAL_ALL10k_KSEC</name>
                         <evalScore>1.958450</evalScore>
                         <scoreMin>1</scoreMin>
                         <scoreMax>5</scoreMax>
                    </RegressionEval>
                    <RegressionEval>
                         <name>GENIE_SEGMENTAL_ALL10k_KSEC_FEAT19</name>
                         <evalScore>1.974935</evalScore>
                         <scoreMin>1</scoreMin>
                         <scoreMax>5</scoreMax>
                    </RegressionEval>
               </RegressionTest>
           </Lesson>
       </PronClinic>

[18:48:23.651] [D] step... 1.. 2
[18:48:23.651] [D] step... 1.. 3
[18:48:23.651] [D] step... 2
[18:48:23.651] [D] step... 3
[18:48:23.651] [D] step... 4
[18:48:23.651] [D] step... 5
[18:48:23.651] [D] step... 6
[18:48:23.651] [D] step... 7
[18:48:23.651] [D] step........ 7
[18:48:23.661] [D] step........ 8
[18:48:23.661] [D] step........ 9
[18:48:23.661] [D] step........ 10
[18:48:23.661] [I]     * pron_score = 51
[18:48:23.661] [I]     * holistic = 2.20372
[18:48:23.661] [I]     * speed = 2.48681
[18:48:23.661] [I]     * rhythm = 2.12228
[18:48:23.661] [I]     * intonation = 2.13585
[18:48:23.661] [I]     * segmental = 1.95845
[18:48:23.661] [I]     * result_code = 0
[18:48:23.661] [I]     * duration = 0.369s

[18:48:23.661] [I] # rpcEvalClient::proceed() >> status = 2
[18:49:23.484] [I] # rpcEvalClient::proceed() >> PROCESS
[18:49:23.484] [I] # rpcEvalClient::proceed() >> CREATE
[18:49:23.484] [I] --> RECEIVED MESSAGE
[18:49:23.484] [I]     * trans_id = 
[18:49:23.484] [I]     * filename = /record/engedu/111111/333333/202004/20200424_184911_660-111111-333333.wav
[18:49:23.484] [I]     * utterance= Where are excellent.This park is health.Care to me like to prepare me.
[18:49:23.484] [I]     --------------------------------------------------------------------
[18:49:23.484] [D] step........ 1
[18:49:23.484] [D] step........ 2
[18:49:23.484] [D] step........ 4, text = Where are excellent.This park is health.Care to me like to prepare me.
[18:49:23.744] [D] step........ 5, /record/engedu/111111/333333/202004/20200424_184911_660-111111-333333.wav
[18:49:24.261] [D] step........ 6,        <PronClinic>
           <Lesson>
               <Item>
                    <eval_score>49</eval_score>
                    <eval_pass>NO</eval_pass>
               </Item>
               <RegressionTest>
                    <RegressionEval>
                         <name>GENIE_HOLISTIC_ALL10k_KSEC</name>
                         <evalScore>1.399452</evalScore>
                         <scoreMin>1</scoreMin>
                         <scoreMax>5</scoreMax>
                    </RegressionEval>
                    <RegressionEval>
                         <name>GENIE_SPEED_ALL10k_KSEC</name>
                         <evalScore>1.474533</evalScore>
                         <scoreMin>1</scoreMin>
                         <scoreMax>5</scoreMax>
                    </RegressionEval>
                    <RegressionEval>
                         <name>GENIE_RHYTHM_ALL10k_KSEC</name>
                         <evalScore>1.421219</evalScore>
                         <scoreMin>1</scoreMin>
                         <scoreMax>5</scoreMax>
                    </RegressionEval>
                    <RegressionEval>
                         <name>GENIE_INTONATION_ALL10k_KSEC</name>
                         <evalScore>1.468747</evalScore>
                         <scoreMin>1</scoreMin>
                         <scoreMax>5</scoreMax>
                    </RegressionEval>
                    <RegressionEval>
                         <name>GENIE_SEGMENTAL_ALL10k_KSEC</name>
                         <evalScore>1.000000</evalScore>
                         <scoreMin>1</scoreMin>
                         <scoreMax>5</scoreMax>
                    </RegressionEval>
                    <RegressionEval>
                         <name>GENIE_SEGMENTAL_ALL10k_KSEC_FEAT19</name>
                         <evalScore>1.396939</evalScore>
                         <scoreMin>1</scoreMin>
                         <scoreMax>5</scoreMax>
                    </RegressionEval>
               </RegressionTest>
           </Lesson>
       </PronClinic>

[18:49:24.261] [I] ------------------------> pronscore = 49
[18:49:24.261] [D] step... 1 >>        <PronClinic>
           <Lesson>
               <Item>
                    <eval_score>49</eval_score>
                    <eval_pass>NO</eval_pass>
               </Item>
               <RegressionTest>
                    <RegressionEval>
                         <name>GENIE_HOLISTIC_ALL10k_KSEC</name>
                         <evalScore>1.399452</evalScore>
                         <scoreMin>1</scoreMin>
                         <scoreMax>5</scoreMax>
                    </RegressionEval>
                    <RegressionEval>
                         <name>GENIE_SPEED_ALL10k_KSEC</name>
                         <evalScore>1.474533</evalScore>
                         <scoreMin>1</scoreMin>
                         <scoreMax>5</scoreMax>
                    </RegressionEval>
                    <RegressionEval>
                         <name>GENIE_RHYTHM_ALL10k_KSEC</name>
                         <evalScore>1.421219</evalScore>
                         <scoreMin>1</scoreMin>
                         <scoreMax>5</scoreMax>
                    </RegressionEval>
                    <RegressionEval>
                         <name>GENIE_INTONATION_ALL10k_KSEC</name>
                         <evalScore>1.468747</evalScore>
                         <scoreMin>1</scoreMin>
                         <scoreMax>5</scoreMax>
                    </RegressionEval>
                    <RegressionEval>
                         <name>GENIE_SEGMENTAL_ALL10k_KSEC</name>
                         <evalScore>1.000000</evalScore>
                         <scoreMin>1</scoreMin>
                         <scoreMax>5</scoreMax>
                    </RegressionEval>
                    <RegressionEval>
                         <name>GENIE_SEGMENTAL_ALL10k_KSEC_FEAT19</name>
                         <evalScore>1.396939</evalScore>
                         <scoreMin>1</scoreMin>
                         <scoreMax>5</scoreMax>
                    </RegressionEval>
               </RegressionTest>
           </Lesson>
       </PronClinic>

[18:49:24.262] [D] step... 1.. 1 / ptr=GENIE_HOLISTIC_ALL10k_KSEC</name>
                         <evalScore>1.399452</evalScore>
                         <scoreMin>1</scoreMin>
                         <scoreMax>5</scoreMax>
                    </RegressionEval>
                    <RegressionEval>
                         <name>GENIE_SPEED_ALL10k_KSEC</name>
                         <evalScore>1.474533</evalScore>
                         <scoreMin>1</scoreMin>
                         <scoreMax>5</scoreMax>
                    </RegressionEval>
                    <RegressionEval>
                         <name>GENIE_RHYTHM_ALL10k_KSEC</name>
                         <evalScore>1.421219</evalScore>
                         <scoreMin>1</scoreMin>
                         <scoreMax>5</scoreMax>
                    </RegressionEval>
                    <RegressionEval>
                         <name>GENIE_INTONATION_ALL10k_KSEC</name>
                         <evalScore>1.468747</evalScore>
                         <scoreMin>1</scoreMin>
                         <scoreMax>5</scoreMax>
                    </RegressionEval>
                    <RegressionEval>
                         <name>GENIE_SEGMENTAL_ALL10k_KSEC</name>
                         <evalScore>1.000000</evalScore>
                         <scoreMin>1</scoreMin>
                         <scoreMax>5</scoreMax>
                    </RegressionEval>
                    <RegressionEval>
                         <name>GENIE_SEGMENTAL_ALL10k_KSEC_FEAT19</name>
                         <evalScore>1.396939</evalScore>
                         <scoreMin>1</scoreMin>
                         <scoreMax>5</scoreMax>
                    </RegressionEval>
               </RegressionTest>
           </Lesson>
       </PronClinic>

[18:49:24.262] [D] step... 1.. 2
[18:49:24.262] [D] step... 1.. 3
[18:49:24.262] [D] step... 2
[18:49:24.262] [D] step... 3
[18:49:24.262] [D] step... 4
[18:49:24.262] [D] step... 5
[18:49:24.262] [D] step... 6
[18:49:24.262] [D] step... 7
[18:49:24.262] [D] step........ 7
[18:49:24.310] [D] step........ 8
[18:49:24.310] [D] step........ 9
[18:49:24.310] [D] step........ 10
[18:49:24.310] [I]     * pron_score = 49
[18:49:24.310] [I]     * holistic = 1.39945
[18:49:24.310] [I]     * speed = 1.47453
[18:49:24.310] [I]     * rhythm = 1.42122
[18:49:24.310] [I]     * intonation = 1.46875
[18:49:24.310] [I]     * segmental = 1
[18:49:24.310] [I]     * result_code = 0
[18:49:24.310] [I]     * duration = 0.826s

[18:49:24.310] [I] # rpcEvalClient::proceed() >> status = 2
[18:50:28.886] [I] # rpcEvalClient::proceed() >> PROCESS
[18:50:28.886] [I] # rpcEvalClient::proceed() >> CREATE
[18:50:28.886] [I] --> RECEIVED MESSAGE
[18:50:28.886] [I]     * trans_id = 
[18:50:28.886] [I]     * filename = /record/engedu/111111/333333/202004/20200424_185024_263-111111-333333.wav
[18:50:28.886] [I]     * utterance= Yes, I will.
[18:50:28.886] [I]     --------------------------------------------------------------------
[18:50:28.886] [D] step........ 1
[18:50:28.886] [D] step........ 2
[18:50:28.886] [D] step........ 4, text = Yes, I will.
[18:50:29.143] [D] step........ 5, /record/engedu/111111/333333/202004/20200424_185024_263-111111-333333.wav
[18:50:29.249] [D] step........ 6,        <PronClinic>
           <Lesson>
               <Item>
                    <eval_score>52</eval_score>
                    <eval_pass>YES</eval_pass>
               </Item>
               <RegressionTest>
                    <RegressionEval>
                         <name>GENIE_HOLISTIC_ALL10k_KSEC</name>
                         <evalScore>2.815432</evalScore>
                         <scoreMin>1</scoreMin>
                         <scoreMax>5</scoreMax>
                    </RegressionEval>
                    <RegressionEval>
                         <name>GENIE_SPEED_ALL10k_KSEC</name>
                         <evalScore>3.114360</evalScore>
                         <scoreMin>1</scoreMin>
                         <scoreMax>5</scoreMax>
                    </RegressionEval>
                    <RegressionEval>
                         <name>GENIE_RHYTHM_ALL10k_KSEC</name>
                         <evalScore>2.854837</evalScore>
                         <scoreMin>1</scoreMin>
                         <scoreMax>5</scoreMax>
                    </RegressionEval>
                    <RegressionEval>
                         <name>GENIE_INTONATION_ALL10k_KSEC</name>
                         <evalScore>2.755930</evalScore>
                         <scoreMin>1</scoreMin>
                         <scoreMax>5</scoreMax>
                    </RegressionEval>
                    <RegressionEval>
                         <name>GENIE_SEGMENTAL_ALL10k_KSEC</name>
                         <evalScore>2.706332</evalScore>
                         <scoreMin>1</scoreMin>
                         <scoreMax>5</scoreMax>
                    </RegressionEval>
                    <RegressionEval>
                         <name>GENIE_SEGMENTAL_ALL10k_KSEC_FEAT19</name>
                         <evalScore>2.558465</evalScore>
                         <scoreMin>1</scoreMin>
                         <scoreMax>5</scoreMax>
                    </RegressionEval>
               </RegressionTest>
           </Lesson>
       </PronClinic>

[18:50:29.249] [I] ------------------------> pronscore = 52
[18:50:29.249] [D] step... 1 >>        <PronClinic>
           <Lesson>
               <Item>
                    <eval_score>52</eval_score>
                    <eval_pass>YES</eval_pass>
               </Item>
               <RegressionTest>
                    <RegressionEval>
                         <name>GENIE_HOLISTIC_ALL10k_KSEC</name>
                         <evalScore>2.815432</evalScore>
                         <scoreMin>1</scoreMin>
                         <scoreMax>5</scoreMax>
                    </RegressionEval>
                    <RegressionEval>
                         <name>GENIE_SPEED_ALL10k_KSEC</name>
                         <evalScore>3.114360</evalScore>
                         <scoreMin>1</scoreMin>
                         <scoreMax>5</scoreMax>
                    </RegressionEval>
                    <RegressionEval>
                         <name>GENIE_RHYTHM_ALL10k_KSEC</name>
                         <evalScore>2.854837</evalScore>
                         <scoreMin>1</scoreMin>
                         <scoreMax>5</scoreMax>
                    </RegressionEval>
                    <RegressionEval>
                         <name>GENIE_INTONATION_ALL10k_KSEC</name>
                         <evalScore>2.755930</evalScore>
                         <scoreMin>1</scoreMin>
                         <scoreMax>5</scoreMax>
                    </RegressionEval>
                    <RegressionEval>
                         <name>GENIE_SEGMENTAL_ALL10k_KSEC</name>
                         <evalScore>2.706332</evalScore>
                         <scoreMin>1</scoreMin>
                         <scoreMax>5</scoreMax>
                    </RegressionEval>
                    <RegressionEval>
                         <name>GENIE_SEGMENTAL_ALL10k_KSEC_FEAT19</name>
                         <evalScore>2.558465</evalScore>
                         <scoreMin>1</scoreMin>
                         <scoreMax>5</scoreMax>
                    </RegressionEval>
               </RegressionTest>
           </Lesson>
       </PronClinic>

[18:50:29.250] [D] step... 1.. 1 / ptr=GENIE_HOLISTIC_ALL10k_KSEC</name>
                         <evalScore>2.815432</evalScore>
                         <scoreMin>1</scoreMin>
                         <scoreMax>5</scoreMax>
                    </RegressionEval>
                    <RegressionEval>
                         <name>GENIE_SPEED_ALL10k_KSEC</name>
                         <evalScore>3.114360</evalScore>
                         <scoreMin>1</scoreMin>
                         <scoreMax>5</scoreMax>
                    </RegressionEval>
                    <RegressionEval>
                         <name>GENIE_RHYTHM_ALL10k_KSEC</name>
                         <evalScore>2.854837</evalScore>
                         <scoreMin>1</scoreMin>
                         <scoreMax>5</scoreMax>
                    </RegressionEval>
                    <RegressionEval>
                         <name>GENIE_INTONATION_ALL10k_KSEC</name>
                         <evalScore>2.755930</evalScore>
                         <scoreMin>1</scoreMin>
                         <scoreMax>5</scoreMax>
                    </RegressionEval>
                    <RegressionEval>
                         <name>GENIE_SEGMENTAL_ALL10k_KSEC</name>
                         <evalScore>2.706332</evalScore>
                         <scoreMin>1</scoreMin>
                         <scoreMax>5</scoreMax>
                    </RegressionEval>
                    <RegressionEval>
                         <name>GENIE_SEGMENTAL_ALL10k_KSEC_FEAT19</name>
                         <evalScore>2.558465</evalScore>
                         <scoreMin>1</scoreMin>
                         <scoreMax>5</scoreMax>
                    </RegressionEval>
               </RegressionTest>
           </Lesson>
       </PronClinic>

[18:50:29.250] [D] step... 1.. 2
[18:50:29.250] [D] step... 1.. 3
[18:50:29.250] [D] step... 2
[18:50:29.250] [D] step... 3
[18:50:29.250] [D] step... 4
[18:50:29.250] [D] step... 5
[18:50:29.250] [D] step... 6
[18:50:29.250] [D] step... 7
[18:50:29.250] [D] step........ 7
[18:50:29.260] [D] step........ 8
[18:50:29.260] [D] step........ 9
[18:50:29.260] [D] step........ 10
[18:50:29.260] [I]     * pron_score = 52
[18:50:29.260] [I]     * holistic = 2.81543
[18:50:29.260] [I]     * speed = 3.11436
[18:50:29.260] [I]     * rhythm = 2.85484
[18:50:29.260] [I]     * intonation = 2.75593
[18:50:29.260] [I]     * segmental = 2.70633
[18:50:29.260] [I]     * result_code = 0
[18:50:29.260] [I]     * duration = 0.374s

[18:50:29.260] [I] # rpcEvalClient::proceed() >> status = 2
[18:50:53.677] [I] # rpcEvalClient::proceed() >> PROCESS
[18:50:53.677] [I] # rpcEvalClient::proceed() >> CREATE
[18:50:53.677] [I] --> RECEIVED MESSAGE
[18:50:53.677] [I]     * trans_id = 
[18:50:53.677] [I]     * filename = /record/engedu/jinsuk3377//202004/20200424_185051_238-jinsuk3377-.wav
[18:50:53.677] [I]     * utterance= One hundred and i've eaten.It is good and tired.
[18:50:53.677] [I]     --------------------------------------------------------------------
[18:50:53.677] [D] step........ 1
[18:50:53.677] [D] step........ 2
[18:50:53.677] [D] step........ 4, text = One hundred and i've eaten.It is good and tired.
[18:50:53.940] [D] step........ 5, /record/engedu/jinsuk3377//202004/20200424_185051_238-jinsuk3377-.wav
[18:50:54.245] [D] step........ 6,        <PronClinic>
           <Lesson>
               <Item>
                    <eval_score>52</eval_score>
                    <eval_pass>YES</eval_pass>
               </Item>
               <RegressionTest>
                    <RegressionEval>
                         <name>GENIE_HOLISTIC_ALL10k_KSEC</name>
                         <evalScore>2.411942</evalScore>
                         <scoreMin>1</scoreMin>
                         <scoreMax>5</scoreMax>
                    </RegressionEval>
                    <RegressionEval>
                         <name>GENIE_SPEED_ALL10k_KSEC</name>
                         <evalScore>2.598420</evalScore>
                         <scoreMin>1</scoreMin>
                         <scoreMax>5</scoreMax>
                    </RegressionEval>
                    <RegressionEval>
                         <name>GENIE_RHYTHM_ALL10k_KSEC</name>
                         <evalScore>2.299131</evalScore>
                         <scoreMin>1</scoreMin>
                         <scoreMax>5</scoreMax>
                    </RegressionEval>
                    <RegressionEval>
                         <name>GENIE_INTONATION_ALL10k_KSEC</name>
                         <evalScore>2.314284</evalScore>
                         <scoreMin>1</scoreMin>
                         <scoreMax>5</scoreMax>
                    </RegressionEval>
                    <RegressionEval>
                         <name>GENIE_SEGMENTAL_ALL10k_KSEC</name>
                         <evalScore>2.391576</evalScore>
                         <scoreMin>1</scoreMin>
                         <scoreMax>5</scoreMax>
                    </RegressionEval>
                    <RegressionEval>
                         <name>GENIE_SEGMENTAL_ALL10k_KSEC_FEAT19</name>
                         <evalScore>2.349838</evalScore>
                         <scoreMin>1</scoreMin>
                         <scoreMax>5</scoreMax>
                    </RegressionEval>
               </RegressionTest>
           </Lesson>
       </PronClinic>

[18:50:54.245] [I] ------------------------> pronscore = 52
[18:50:54.245] [D] step... 1 >>        <PronClinic>
           <Lesson>
               <Item>
                    <eval_score>52</eval_score>
                    <eval_pass>YES</eval_pass>
               </Item>
               <RegressionTest>
                    <RegressionEval>
                         <name>GENIE_HOLISTIC_ALL10k_KSEC</name>
                         <evalScore>2.411942</evalScore>
                         <scoreMin>1</scoreMin>
                         <scoreMax>5</scoreMax>
                    </RegressionEval>
                    <RegressionEval>
                         <name>GENIE_SPEED_ALL10k_KSEC</name>
                         <evalScore>2.598420</evalScore>
                         <scoreMin>1</scoreMin>
                         <scoreMax>5</scoreMax>
                    </RegressionEval>
                    <RegressionEval>
                         <name>GENIE_RHYTHM_ALL10k_KSEC</name>
                         <evalScore>2.299131</evalScore>
                         <scoreMin>1</scoreMin>
                         <scoreMax>5</scoreMax>
                    </RegressionEval>
                    <RegressionEval>
                         <name>GENIE_INTONATION_ALL10k_KSEC</name>
                         <evalScore>2.314284</evalScore>
                         <scoreMin>1</scoreMin>
                         <scoreMax>5</scoreMax>
                    </RegressionEval>
                    <RegressionEval>
                         <name>GENIE_SEGMENTAL_ALL10k_KSEC</name>
                         <evalScore>2.391576</evalScore>
                         <scoreMin>1</scoreMin>
                         <scoreMax>5</scoreMax>
                    </RegressionEval>
                    <RegressionEval>
                         <name>GENIE_SEGMENTAL_ALL10k_KSEC_FEAT19</name>
                         <evalScore>2.349838</evalScore>
                         <scoreMin>1</scoreMin>
                         <scoreMax>5</scoreMax>
                    </RegressionEval>
               </RegressionTest>
           </Lesson>
       </PronClinic>

[18:50:54.245] [D] step... 1.. 1 / ptr=GENIE_HOLISTIC_ALL10k_KSEC</name>
                         <evalScore>2.411942</evalScore>
                         <scoreMin>1</scoreMin>
                         <scoreMax>5</scoreMax>
                    </RegressionEval>
                    <RegressionEval>
                         <name>GENIE_SPEED_ALL10k_KSEC</name>
                         <evalScore>2.598420</evalScore>
                         <scoreMin>1</scoreMin>
                         <scoreMax>5</scoreMax>
                    </RegressionEval>
                    <RegressionEval>
                         <name>GENIE_RHYTHM_ALL10k_KSEC</name>
                         <evalScore>2.299131</evalScore>
                         <scoreMin>1</scoreMin>
                         <scoreMax>5</scoreMax>
                    </RegressionEval>
                    <RegressionEval>
                         <name>GENIE_INTONATION_ALL10k_KSEC</name>
                         <evalScore>2.314284</evalScore>
                         <scoreMin>1</scoreMin>
                         <scoreMax>5</scoreMax>
                    </RegressionEval>
                    <RegressionEval>
                         <name>GENIE_SEGMENTAL_ALL10k_KSEC</name>
                         <evalScore>2.391576</evalScore>
                         <scoreMin>1</scoreMin>
                         <scoreMax>5</scoreMax>
                    </RegressionEval>
                    <RegressionEval>
                         <name>GENIE_SEGMENTAL_ALL10k_KSEC_FEAT19</name>
                         <evalScore>2.349838</evalScore>
                         <scoreMin>1</scoreMin>
                         <scoreMax>5</scoreMax>
                    </RegressionEval>
               </RegressionTest>
           </Lesson>
       </PronClinic>

[18:50:54.245] [D] step... 1.. 2
[18:50:54.245] [D] step... 1.. 3
[18:50:54.245] [D] step... 2
[18:50:54.245] [D] step... 3
[18:50:54.245] [D] step... 4
[18:50:54.245] [D] step... 5
[18:50:54.245] [D] step... 6
[18:50:54.245] [D] step... 7
[18:50:54.245] [D] step........ 7
[18:50:54.299] [D] step........ 8
[18:50:54.299] [D] step........ 9
[18:50:54.299] [D] step........ 10
[18:50:54.299] [I]     * pron_score = 52
[18:50:54.299] [I]     * holistic = 2.41194
[18:50:54.299] [I]     * speed = 2.59842
[18:50:54.299] [I]     * rhythm = 2.29913
[18:50:54.299] [I]     * intonation = 2.31428
[18:50:54.299] [I]     * segmental = 2.39158
[18:50:54.299] [I]     * result_code = 0
[18:50:54.299] [I]     * duration = 0.622s

[18:50:54.299] [I] # rpcEvalClient::proceed() >> status = 2
[18:51:18.854] [I] # rpcEvalClient::proceed() >> PROCESS
[18:51:18.854] [I] # rpcEvalClient::proceed() >> CREATE
[18:51:18.854] [I] --> RECEIVED MESSAGE
[18:51:18.854] [I]     * trans_id = 
[18:51:18.854] [I]     * filename = /record/engedu/111111/333333/202004/20200424_185107_577-111111-333333.wav
[18:51:18.854] [I]     * utterance= Do you plan to listen to it is to decide to play to play to decide to?
[18:51:18.854] [I]     --------------------------------------------------------------------
[18:51:18.854] [D] step........ 1
[18:51:18.854] [D] step........ 2
[18:51:18.854] [D] step........ 4, text = Do you plan to listen to it is to decide to play to play to decide to?
[18:51:19.111] [D] step........ 5, /record/engedu/111111/333333/202004/20200424_185107_577-111111-333333.wav
[18:51:19.659] [D] step........ 6,        <PronClinic>
           <Lesson>
               <Item>
                    <eval_score>49</eval_score>
                    <eval_pass>NO</eval_pass>
               </Item>
               <RegressionTest>
                    <RegressionEval>
                         <name>GENIE_HOLISTIC_ALL10k_KSEC</name>
                         <evalScore>1.770253</evalScore>
                         <scoreMin>1</scoreMin>
                         <scoreMax>5</scoreMax>
                    </RegressionEval>
                    <RegressionEval>
                         <name>GENIE_SPEED_ALL10k_KSEC</name>
                         <evalScore>1.905766</evalScore>
                         <scoreMin>1</scoreMin>
                         <scoreMax>5</scoreMax>
                    </RegressionEval>
                    <RegressionEval>
                         <name>GENIE_RHYTHM_ALL10k_KSEC</name>
                         <evalScore>1.756015</evalScore>
                         <scoreMin>1</scoreMin>
                         <scoreMax>5</scoreMax>
                    </RegressionEval>
                    <RegressionEval>
                         <name>GENIE_INTONATION_ALL10k_KSEC</name>
                         <evalScore>1.732472</evalScore>
                         <scoreMin>1</scoreMin>
                         <scoreMax>5</scoreMax>
                    </RegressionEval>
                    <RegressionEval>
                         <name>GENIE_SEGMENTAL_ALL10k_KSEC</name>
                         <evalScore>1.447185</evalScore>
                         <scoreMin>1</scoreMin>
                         <scoreMax>5</scoreMax>
                    </RegressionEval>
                    <RegressionEval>
                         <name>GENIE_SEGMENTAL_ALL10k_KSEC_FEAT19</name>
                         <evalScore>1.539971</evalScore>
                         <scoreMin>1</scoreMin>
                         <scoreMax>5</scoreMax>
                    </RegressionEval>
               </RegressionTest>
           </Lesson>
       </PronClinic>

[18:51:19.659] [I] ------------------------> pronscore = 49
[18:51:19.659] [D] step... 1 >>        <PronClinic>
           <Lesson>
               <Item>
                    <eval_score>49</eval_score>
                    <eval_pass>NO</eval_pass>
               </Item>
               <RegressionTest>
                    <RegressionEval>
                         <name>GENIE_HOLISTIC_ALL10k_KSEC</name>
                         <evalScore>1.770253</evalScore>
                         <scoreMin>1</scoreMin>
                         <scoreMax>5</scoreMax>
                    </RegressionEval>
                    <RegressionEval>
                         <name>GENIE_SPEED_ALL10k_KSEC</name>
                         <evalScore>1.905766</evalScore>
                         <scoreMin>1</scoreMin>
                         <scoreMax>5</scoreMax>
                    </RegressionEval>
                    <RegressionEval>
                         <name>GENIE_RHYTHM_ALL10k_KSEC</name>
                         <evalScore>1.756015</evalScore>
                         <scoreMin>1</scoreMin>
                         <scoreMax>5</scoreMax>
                    </RegressionEval>
                    <RegressionEval>
                         <name>GENIE_INTONATION_ALL10k_KSEC</name>
                         <evalScore>1.732472</evalScore>
                         <scoreMin>1</scoreMin>
                         <scoreMax>5</scoreMax>
                    </RegressionEval>
                    <RegressionEval>
                         <name>GENIE_SEGMENTAL_ALL10k_KSEC</name>
                         <evalScore>1.447185</evalScore>
                         <scoreMin>1</scoreMin>
                         <scoreMax>5</scoreMax>
                    </RegressionEval>
                    <RegressionEval>
                         <name>GENIE_SEGMENTAL_ALL10k_KSEC_FEAT19</name>
                         <evalScore>1.539971</evalScore>
                         <scoreMin>1</scoreMin>
                         <scoreMax>5</scoreMax>
                    </RegressionEval>
               </RegressionTest>
           </Lesson>
       </PronClinic>

[18:51:19.659] [D] step... 1.. 1 / ptr=GENIE_HOLISTIC_ALL10k_KSEC</name>
                         <evalScore>1.770253</evalScore>
                         <scoreMin>1</scoreMin>
                         <scoreMax>5</scoreMax>
                    </RegressionEval>
                    <RegressionEval>
                         <name>GENIE_SPEED_ALL10k_KSEC</name>
                         <evalScore>1.905766</evalScore>
                         <scoreMin>1</scoreMin>
                         <scoreMax>5</scoreMax>
                    </RegressionEval>
                    <RegressionEval>
                         <name>GENIE_RHYTHM_ALL10k_KSEC</name>
                         <evalScore>1.756015</evalScore>
                         <scoreMin>1</scoreMin>
                         <scoreMax>5</scoreMax>
                    </RegressionEval>
                    <RegressionEval>
                         <name>GENIE_INTONATION_ALL10k_KSEC</name>
                         <evalScore>1.732472</evalScore>
                         <scoreMin>1</scoreMin>
                         <scoreMax>5</scoreMax>
                    </RegressionEval>
                    <RegressionEval>
                         <name>GENIE_SEGMENTAL_ALL10k_KSEC</name>
                         <evalScore>1.447185</evalScore>
                         <scoreMin>1</scoreMin>
                         <scoreMax>5</scoreMax>
                    </RegressionEval>
                    <RegressionEval>
                         <name>GENIE_SEGMENTAL_ALL10k_KSEC_FEAT19</name>
                         <evalScore>1.539971</evalScore>
                         <scoreMin>1</scoreMin>
                         <scoreMax>5</scoreMax>
                    </RegressionEval>
               </RegressionTest>
           </Lesson>
       </PronClinic>

[18:51:19.659] [D] step... 1.. 2
[18:51:19.659] [D] step... 1.. 3
[18:51:19.659] [D] step... 2
[18:51:19.659] [D] step... 3
[18:51:19.659] [D] step... 4
[18:51:19.659] [D] step... 5
[18:51:19.659] [D] step... 6
[18:51:19.659] [D] step... 7
[18:51:19.659] [D] step........ 7
[18:51:19.722] [D] step........ 8
[18:51:19.722] [D] step........ 9
[18:51:19.722] [D] step........ 10
[18:51:19.722] [I]     * pron_score = 49
[18:51:19.722] [I]     * holistic = 1.77025
[18:51:19.722] [I]     * speed = 1.90577
[18:51:19.722] [I]     * rhythm = 1.75601
[18:51:19.722] [I]     * intonation = 1.73247
[18:51:19.722] [I]     * segmental = 1.44719
[18:51:19.722] [I]     * result_code = 0
[18:51:19.723] [I]     * duration = 0.869s

[18:51:19.723] [I] # rpcEvalClient::proceed() >> status = 2
[18:52:17.558] [I] # rpcEvalClient::proceed() >> PROCESS
[18:52:17.558] [I] # rpcEvalClient::proceed() >> CREATE
[18:52:17.558] [I] --> RECEIVED MESSAGE
[18:52:17.558] [I]     * trans_id = 
[18:52:17.558] [I]     * filename = /record/engedu/111111/333333/202004/20200424_185210_117-111111-333333.wav
[18:52:17.559] [I]     * utterance= Well.I've always wanted to work in health care.
[18:52:17.559] [I]     --------------------------------------------------------------------
[18:52:17.559] [D] step........ 1
[18:52:17.559] [D] step........ 2
[18:52:17.559] [D] step........ 4, text = Well.I've always wanted to work in health care.
[18:52:17.812] [D] step........ 5, /record/engedu/111111/333333/202004/20200424_185210_117-111111-333333.wav
[18:52:18.062] [D] step........ 6,        <PronClinic>
           <Lesson>
               <Item>
                    <eval_score>55</eval_score>
                    <eval_pass>YES</eval_pass>
               </Item>
               <RegressionTest>
                    <RegressionEval>
                         <name>GENIE_HOLISTIC_ALL10k_KSEC</name>
                         <evalScore>2.438643</evalScore>
                         <scoreMin>1</scoreMin>
                         <scoreMax>5</scoreMax>
                    </RegressionEval>
                    <RegressionEval>
                         <name>GENIE_SPEED_ALL10k_KSEC</name>
                         <evalScore>2.748559</evalScore>
                         <scoreMin>1</scoreMin>
                         <scoreMax>5</scoreMax>
                    </RegressionEval>
                    <RegressionEval>
                         <name>GENIE_RHYTHM_ALL10k_KSEC</name>
                         <evalScore>2.505996</evalScore>
                         <scoreMin>1</scoreMin>
                         <scoreMax>5</scoreMax>
                    </RegressionEval>
                    <RegressionEval>
                         <name>GENIE_INTONATION_ALL10k_KSEC</name>
                         <evalScore>2.408647</evalScore>
                         <scoreMin>1</scoreMin>
                         <scoreMax>5</scoreMax>
                    </RegressionEval>
                    <RegressionEval>
                         <name>GENIE_SEGMENTAL_ALL10k_KSEC</name>
                         <evalScore>2.161467</evalScore>
                         <scoreMin>1</scoreMin>
                         <scoreMax>5</scoreMax>
                    </RegressionEval>
                    <RegressionEval>
                         <name>GENIE_SEGMENTAL_ALL10k_KSEC_FEAT19</name>
                         <evalScore>2.298105</evalScore>
                         <scoreMin>1</scoreMin>
                         <scoreMax>5</scoreMax>
                    </RegressionEval>
               </RegressionTest>
           </Lesson>
       </PronClinic>

[18:52:18.062] [I] ------------------------> pronscore = 55
[18:52:18.062] [D] step... 1 >>        <PronClinic>
           <Lesson>
               <Item>
                    <eval_score>55</eval_score>
                    <eval_pass>YES</eval_pass>
               </Item>
               <RegressionTest>
                    <RegressionEval>
                         <name>GENIE_HOLISTIC_ALL10k_KSEC</name>
                         <evalScore>2.438643</evalScore>
                         <scoreMin>1</scoreMin>
                         <scoreMax>5</scoreMax>
                    </RegressionEval>
                    <RegressionEval>
                         <name>GENIE_SPEED_ALL10k_KSEC</name>
                         <evalScore>2.748559</evalScore>
                         <scoreMin>1</scoreMin>
                         <scoreMax>5</scoreMax>
                    </RegressionEval>
                    <RegressionEval>
                         <name>GENIE_RHYTHM_ALL10k_KSEC</name>
                         <evalScore>2.505996</evalScore>
                         <scoreMin>1</scoreMin>
                         <scoreMax>5</scoreMax>
                    </RegressionEval>
                    <RegressionEval>
                         <name>GENIE_INTONATION_ALL10k_KSEC</name>
                         <evalScore>2.408647</evalScore>
                         <scoreMin>1</scoreMin>
                         <scoreMax>5</scoreMax>
                    </RegressionEval>
                    <RegressionEval>
                         <name>GENIE_SEGMENTAL_ALL10k_KSEC</name>
                         <evalScore>2.161467</evalScore>
                         <scoreMin>1</scoreMin>
                         <scoreMax>5</scoreMax>
                    </RegressionEval>
                    <RegressionEval>
                         <name>GENIE_SEGMENTAL_ALL10k_KSEC_FEAT19</name>
                         <evalScore>2.298105</evalScore>
                         <scoreMin>1</scoreMin>
                         <scoreMax>5</scoreMax>
                    </RegressionEval>
               </RegressionTest>
           </Lesson>
       </PronClinic>

[18:52:18.062] [D] step... 1.. 1 / ptr=GENIE_HOLISTIC_ALL10k_KSEC</name>
                         <evalScore>2.438643</evalScore>
                         <scoreMin>1</scoreMin>
                         <scoreMax>5</scoreMax>
                    </RegressionEval>
                    <RegressionEval>
                         <name>GENIE_SPEED_ALL10k_KSEC</name>
                         <evalScore>2.748559</evalScore>
                         <scoreMin>1</scoreMin>
                         <scoreMax>5</scoreMax>
                    </RegressionEval>
                    <RegressionEval>
                         <name>GENIE_RHYTHM_ALL10k_KSEC</name>
                         <evalScore>2.505996</evalScore>
                         <scoreMin>1</scoreMin>
                         <scoreMax>5</scoreMax>
                    </RegressionEval>
                    <RegressionEval>
                         <name>GENIE_INTONATION_ALL10k_KSEC</name>
                         <evalScore>2.408647</evalScore>
                         <scoreMin>1</scoreMin>
                         <scoreMax>5</scoreMax>
                    </RegressionEval>
                    <RegressionEval>
                         <name>GENIE_SEGMENTAL_ALL10k_KSEC</name>
                         <evalScore>2.161467</evalScore>
                         <scoreMin>1</scoreMin>
                         <scoreMax>5</scoreMax>
                    </RegressionEval>
                    <RegressionEval>
                         <name>GENIE_SEGMENTAL_ALL10k_KSEC_FEAT19</name>
                         <evalScore>2.298105</evalScore>
                         <scoreMin>1</scoreMin>
                         <scoreMax>5</scoreMax>
                    </RegressionEval>
               </RegressionTest>
           </Lesson>
       </PronClinic>

[18:52:18.062] [D] step... 1.. 2
[18:52:18.062] [D] step... 1.. 3
[18:52:18.062] [D] step... 2
[18:52:18.062] [D] step... 3
[18:52:18.062] [D] step... 4
[18:52:18.062] [D] step... 5
[18:52:18.062] [D] step... 6
[18:52:18.062] [D] step... 7
[18:52:18.062] [D] step........ 7
[18:52:18.095] [D] step........ 8
[18:52:18.095] [D] step........ 9
[18:52:18.095] [D] step........ 10
[18:52:18.095] [I]     * pron_score = 55
[18:52:18.095] [I]     * holistic = 2.43864
[18:52:18.095] [I]     * speed = 2.74856
[18:52:18.095] [I]     * rhythm = 2.506
[18:52:18.095] [I]     * intonation = 2.40865
[18:52:18.095] [I]     * segmental = 2.16147
[18:52:18.095] [I]     * result_code = 0
[18:52:18.095] [I]     * duration = 0.537s

